<?xml version="1.0" encoding="UTF-8" standalone="no"?> <svg xmlns="http://www.w3.org/2000/svg" xmlns:xlink="http://www.w3.org/1999/xlink" width="2921pt" height="1326pt" viewBox="0.00 0.00 2921 1325.8">
<g id="graph0" class="graph" transform="translate(4, 1321.800048828125)">
<title>%0</title>
<polygon fill="#ffffff" stroke="transparent" points="-4,4 -4,-1321.8 2917,-1321.8 2917,4 -4,4"></polygon>
<g id="clust1" class="cluster">
<title>cluster</title>
<polygon fill="#234178" fill-opacity="0.184314" stroke="#000000" points="8,-8 8,-1309.8 2905,-1309.8 2905,-8 8,-8"></polygon>
<text text-anchor="middle" x="1456.5" y="-1293.2" font-family="Times,serif" font-size="14.00" fill="#000000">Global</text>
</g>
<g id="clust2" class="cluster">
<title>cluster_1</title>
<polygon fill="#234178" fill-opacity="0.184314" stroke="#000000" points="548,-86 548,-1109.2 1726,-1109.2 1726,-86 548,-86"></polygon>
<text text-anchor="middle" x="1137" y="-1092.6" font-family="Times,serif" font-size="14.00" fill="#000000">CellType[cell]</text>
</g>
<g id="clust3" class="cluster">
<title>cluster_cpm1</title>
<polygon fill="#234178" fill-opacity="0.184314" stroke="#000000" points="898,-94 898,-184.8 1502,-184.8 1502,-94 898,-94"></polygon>
<text text-anchor="middle" x="1200" y="-168.2" font-family="Times,serif" font-size="14.00" fill="#000000">CPM plugins</text>
</g>
<g id="clust4" class="cluster">
<title>cluster_3</title>
<polygon fill="#234178" fill-opacity="0.184314" stroke="#000000" points="1354,-735.6 1354,-850.4 1528,-850.4 1528,-735.6 1354,-735.6"></polygon>
<text text-anchor="middle" x="1441" y="-833.8" font-family="Times,serif" font-size="14.00" fill="#000000">System</text>
</g>
<g id="clust5" class="cluster">
<title>cluster_4</title>
<polygon fill="#234178" fill-opacity="0.184314" stroke="#000000" points="1536,-735.6 1536,-850.4 1718,-850.4 1718,-735.6 1536,-735.6"></polygon>
<text text-anchor="middle" x="1627" y="-833.8" font-family="Times,serif" font-size="14.00" fill="#000000">System</text>
</g>
<g id="clust6" class="cluster">
<title>cluster_5</title>
<polygon fill="#234178" fill-opacity="0.184314" stroke="#000000" points="1580,-438.8 1580,-553.6 1718,-553.6 1718,-438.8 1580,-438.8"></polygon>
<text text-anchor="middle" x="1649" y="-537" font-family="Times,serif" font-size="14.00" fill="#000000">System</text>
</g>
<g id="clust7" class="cluster">
<title>cluster_2</title>
<polygon fill="#234178" fill-opacity="0.184314" stroke="#000000" points="1610,-1200.2 1610,-1277 1914,-1277 1914,-1200.2 1610,-1200.2"></polygon>
<text text-anchor="middle" x="1762" y="-1260.4" font-family="Times,serif" font-size="14.00" fill="#000000">CellType[confinement]</text>
</g>
<!-- Gnuplotter_0_1 -->
<g id="node1" class="node">
<title>Gnuplotter_0_1</title>
<g id="a_node1">">
<polygon fill="#fffea3" stroke="transparent" points="1957,-66 1885,-66 1885,-16 1957,-16 1957,-66"></polygon>
<text text-anchor="start" x="1888.507" y="-48.5" font-family="times" font-size="15.00" fill="#000000">Gnuplotter</text>
<text text-anchor="start" x="1917.25" y="-24.5" font-family="times" font-size="15.00" fill="#000000">1</text>
<polygon fill="#000000" stroke="#000000" points="1885,-41 1885,-41 1957,-41 1957,-41 1885,-41"></polygon>
<polygon fill="none" stroke="#000000" points="1885,-16 1885,-66 1957,-66 1957,-16 1885,-16"></polygon>
</g>
</g>
<!-- CPM_0_0_1 -->
<g id="node2" class="node">
<title>CPM_0_0_1</title>
<g id="a_node2">">
<polygon fill="#fffea3" stroke="transparent" points="911.5,-1255.2 856.5,-1255.2 856.5,-1197.2 911.5,-1197.2 911.5,-1255.2"></polygon>
<text text-anchor="start" x="868.6623" y="-1233.7" font-family="times" font-size="15.00" fill="#000000">CPM</text>
<text text-anchor="start" x="875.125" y="-1209.7" font-family="times" font-size="15.00" fill="#000000">0.1</text>
<polygon fill="#000000" stroke="#000000" points="865,-1226.2 865,-1226.2 904,-1226.2 904,-1226.2 865,-1226.2"></polygon>
<polygon fill="none" stroke="#000000" points="864.5,-1201.2 864.5,-1251.2 903.5,-1251.2 903.5,-1201.2 864.5,-1201.2"></polygon>
</g>
</g>
<!-- cell_center_0 -->
<g id="node4" class="node">
<title>cell_center_0</title>
<ellipse fill="#b5b426" stroke="#000000" cx="884" cy="-1139.2" rx="50.9588" ry="18"></ellipse>
<ellipse fill="none" stroke="#000000" cx="884" cy="-1139.2" rx="54.9572" ry="22"></ellipse>
<text text-anchor="middle" x="884" y="-1135" font-family="Times,serif" font-size="14.00" fill="#000000">cell.center</text>
</g>
<!-- CPM_0_0_1&#45;&gt;cell_center_0 -->
<g id="edge2" class="edge">
<title>CPM_0_0_1-&gt;cell_center_0</title>
<path fill="none" stroke="#8f100d" stroke-width="3" d="M884,-1196.7458C884,-1188.6351 884,-1179.7946 884,-1171.531"></path>
<polygon fill="#8f100d" stroke="#8f100d" stroke-width="3" points="887.5001,-1171.4705 884,-1161.4705 880.5001,-1171.4706 887.5001,-1171.4705"></polygon>
</g>
<!-- cell_type_0 -->
<g id="node7" class="node">
<title>cell_type_0</title>
<ellipse fill="#d3d247" stroke="#000000" cx="1782" cy="-967.4" rx="44.0361" ry="18"></ellipse>
<ellipse fill="none" stroke="#000000" cx="1782" cy="-967.4" rx="48.0377" ry="22"></ellipse>
<text text-anchor="middle" x="1782" y="-963.2" font-family="Times,serif" font-size="14.00" fill="#000000">cell.type</text>
</g>
<!-- CPM_0_0_1&#45;&gt;cell_type_0 -->
<g id="edge3" class="edge">
<title>CPM_0_0_1-&gt;cell_type_0</title>
<path fill="none" stroke="#8f100d" stroke-width="3" d="M911.5874,-1224.0687C1049.9722,-1213.1568 1664.485,-1162.0029 1730,-1109.2 1763.1596,-1082.4745 1775.1744,-1032.5813 1779.5274,-999.6766"></path>
<polygon fill="#8f100d" stroke="#8f100d" stroke-width="3" points="1783.0159,-999.9771 1780.6886,-989.641 1776.0623,-999.1724 1783.0159,-999.9771"></polygon>
</g>
<!-- VolumeConstraint_1 -->
<g id="node30" class="node">
<title>VolumeConstraint_1</title>
<g id="a_node30">">
<polygon fill="#fffea3" stroke="transparent" points="1024,-145 906,-145 906,-109 1024,-109 1024,-145"></polygon>
<text text-anchor="start" x="909.5908" y="-122.5" font-family="times" font-size="15.00" fill="#000000">VolumeConstraint</text>
<polygon fill="none" stroke="#000000" points="906,-114 906,-140 1024,-140 1024,-114 906,-114"></polygon>
</g>
</g>
<!-- CPM_0_0_1&#45;&gt;VolumeConstraint_1 -->
<g id="edge1" class="edge">
<title style="">CPM_0_0_1-&gt;DirectedMotion_1_9484618370322279673</title>
<path fill="none" stroke="#38568c" d="M856.4256,-1225.754C719.4808,-1223.3149 116.4074,-1209.8611 50,-1161.2 11.294,-1132.8375 17,-1106.3853 17,-1058.4 17,-1058.4 17,-1058.4 17,-301.8 17,-182.2102 425.135,-205.947 544,-192.8 598.0112,-186.8261 980.1436,-197.4135 1033,-184.8"></path>
</g>
<!-- RandT_or_Mech_motion_strength_global_0 -->
<g id="node3" class="node">
<title>RandT_or_Mech_motion_strength_global_0</title>
<g id="a_node3">
<ellipse fill="#d3d247" stroke="#000000" cx="2703" cy="-876.4" rx="174.2113" ry="18"></ellipse>
<text text-anchor="middle" x="2703" y="-872.2" font-family="Times,serif" font-size="14.00" fill="#000000">RandT_or_Mech_motion_strength_global</text>
</g>
</g>
<!-- Event_4_287372449523645943_0_1 -->
<g id="node56" class="node">
<title>Event_4_287372449523645943_0_1</title>
<g id="a_node56">">
<polygon fill="#fffea3" stroke="transparent" points="1710,-817.6 1544,-817.6 1544,-743.6 1710,-743.6 1710,-817.6"></polygon>
<text text-anchor="start" x="1609.5048" y="-800.1" font-family="times" font-size="15.00" fill="#000000">Event</text>
<text text-anchor="start" x="1547.5623" y="-777.1" font-family="times" font-style="italic" font-size="15.00" fill="#000000">"Polster cell initialization"</text>
<text text-anchor="start" x="1617.625" y="-752.1" font-family="times" font-size="15.00" fill="#000000">0.1</text>
<polygon fill="#000000" stroke="#000000" points="1544,-768.6 1544,-768.6 1710,-768.6 1710,-768.6 1544,-768.6"></polygon>
<polygon fill="none" stroke="#000000" points="1544,-743.6 1544,-817.6 1710,-817.6 1710,-743.6 1544,-743.6"></polygon>
</g>
</g>
<!-- RandT_or_Mech_motion_strength_global_0&#45;&gt;Event_4_287372449523645943_0_1 -->
<g id="edge25" class="edge">
<title>RandT_or_Mech_motion_strength_global_0-&gt;Event_4_287372449523645943_0_1</title>
<path fill="none" stroke="#112c5f" stroke-width="2" d="M2584.4958,-863.2064C2563.055,-861.2576 2540.8799,-859.5283 2520,-858.4 2497.6426,-857.1919 1735.0855,-857.9308 1714,-850.4 1698.143,-844.7366 1683.0208,-834.8677 1669.9638,-824.3036"></path>
<polygon fill="#112c5f" stroke="#112c5f" stroke-width="2" points="1672.0093,-821.4498 1662.1127,-817.6674 1667.4906,-826.7959 1672.0093,-821.4498"></polygon>
</g>
<!-- cell_center_x_0 -->
<g id="node5" class="node">
<title>cell_center_x_0</title>
<ellipse fill="#d3d247" stroke="#000000" cx="482" cy="-1058.4" rx="58.4435" ry="18"></ellipse>
<text text-anchor="middle" x="482" y="-1054.2" font-family="Times,serif" font-size="14.00" fill="#000000">cell.center.x</text>
</g>
<!-- cell_center_0&#45;&gt;cell_center_x_0 -->
<g id="edge28" class="edge">
<title>cell_center_0-&gt;cell_center_x_0</title>
<path fill="none" stroke="#38568c" stroke-dasharray="5,2" d="M828.735,-1138.2591C745.958,-1136.189 594.1373,-1129.6464 544,-1109.2 526.0894,-1101.8959 509.3501,-1087.547 497.7904,-1075.9569"></path>
</g>
<!-- cell_center_y_0 -->
<g id="node6" class="node">
<title>cell_center_y_0</title>
<ellipse fill="#d3d247" stroke="#000000" cx="348" cy="-1058.4" rx="58.4435" ry="18"></ellipse>
<text text-anchor="middle" x="348" y="-1054.2" font-family="Times,serif" font-size="14.00" fill="#000000">cell.center.y</text>
</g>
<!-- cell_center_0&#45;&gt;cell_center_y_0 -->
<g id="edge29" class="edge">
<title>cell_center_0-&gt;cell_center_y_0</title>
<path fill="none" stroke="#38568c" stroke-dasharray="5,2" d="M828.9531,-1137.4622C713.3659,-1133.5555 452.8982,-1123.3054 415,-1109.2 395.8472,-1102.0715 377.6049,-1087.5469 365.0054,-1075.8477"></path>
</g>
<!-- NeighborhoodReporter_1_2935424596247476088_1 -->
<g id="node19" class="node">
<title>NeighborhoodReporter_1_2935424596247476088_1</title>
<g id="a_node19">">
<polygon fill="#fffea3" stroke="transparent" points="1467.5,-1004.4 1320.5,-1004.4 1320.5,-930.4 1467.5,-930.4 1467.5,-1004.4"></polygon>
<text text-anchor="start" x="1324.9375" y="-986.9" font-family="times" font-size="15.00" fill="#000000">NeighborhoodReporter</text>
<text text-anchor="start" x="1332.1525" y="-963.9" font-family="times" font-style="italic" font-size="15.00" fill="#000000">"neighbor_center_x"</text>
<text text-anchor="start" x="1390.75" y="-938.9" font-family="times" font-size="15.00" fill="#000000">1</text>
<polygon fill="#000000" stroke="#000000" points="1321,-955.4 1321,-955.4 1468,-955.4 1468,-955.4 1321,-955.4"></polygon>
<polygon fill="none" stroke="#000000" points="1320.5,-930.4 1320.5,-1004.4 1467.5,-1004.4 1467.5,-930.4 1320.5,-930.4"></polygon>
</g>
</g>
<!-- cell_center_x_0&#45;&gt;NeighborhoodReporter_1_2935424596247476088_1 -->
<g id="edge41" class="edge">
<title>cell_center_x_0-&gt;NeighborhoodReporter_1_2935424596247476088_1</title>
<path fill="none" stroke="#112c5f" stroke-width="2" d="M522.0369,-1045.2871C529.2789,-1043.3431 536.8132,-1041.5947 544,-1040.4 877.3569,-984.9845 977.0239,-1081.3225 1310.3377,-1004.2311"></path>
<polygon fill="#112c5f" stroke="#112c5f" stroke-width="2" points="1311.3326,-1007.5927 1320.2677,-1001.8993 1309.7324,-1000.7781 1311.3326,-1007.5927"></polygon>
</g>
<!-- NeighborhoodReporter_1_11546882034193711143_1 -->
<g id="node20" class="node">
<title>NeighborhoodReporter_1_11546882034193711143_1</title>
<g id="a_node20">">
<polygon fill="#fffea3" stroke="transparent" points="1033.5,-1004.4 886.5,-1004.4 886.5,-930.4 1033.5,-930.4 1033.5,-1004.4"></polygon>
<text text-anchor="start" x="890.9375" y="-986.9" font-family="times" font-size="15.00" fill="#000000">NeighborhoodReporter</text>
<text text-anchor="start" x="898.1525" y="-963.9" font-family="times" font-style="italic" font-size="15.00" fill="#000000">"neighbor_center_y"</text>
<text text-anchor="start" x="956.75" y="-938.9" font-family="times" font-size="15.00" fill="#000000">1</text>
<polygon fill="#000000" stroke="#000000" points="887,-955.4 887,-955.4 1034,-955.4 1034,-955.4 887,-955.4"></polygon>
<polygon fill="none" stroke="#000000" points="886.5,-930.4 886.5,-1004.4 1033.5,-1004.4 1033.5,-930.4 886.5,-930.4"></polygon>
</g>
</g>
<!-- cell_center_y_0&#45;&gt;NeighborhoodReporter_1_11546882034193711143_1 -->
<g id="edge44" class="edge">
<title>cell_center_y_0-&gt;NeighborhoodReporter_1_11546882034193711143_1</title>
<path fill="none" stroke="#112c5f" stroke-width="2" d="M389.9103,-1045.8691C398.1664,-1043.7621 406.8092,-1041.8062 415,-1040.4 615.1448,-1006.0379 676.096,-1054.0168 876.2726,-1004.5766"></path>
<polygon fill="#112c5f" stroke="#112c5f" stroke-width="2" points="877.3799,-1007.907 886.2208,-1002.0683 875.6685,-1001.1194 877.3799,-1007.907"></polygon>
</g>
<!-- color_0 -->
<g id="node8" class="node">
<title>color_0</title>
<ellipse fill="#d3d247" stroke="#000000" cx="2025" cy="-598.6" rx="30.7716" ry="18"></ellipse>
<ellipse fill="none" stroke="#000000" cx="2025" cy="-598.6" rx="34.7577" ry="22"></ellipse>
<text text-anchor="middle" x="2025" y="-594.4" font-family="Times,serif" font-size="14.00" fill="#000000">color</text>
</g>
<!-- color_0&#45;&gt;Gnuplotter_0_1 -->
<g id="edge51" class="edge">
<title>color_0-&gt;Gnuplotter_0_1</title>
<path fill="none" stroke="#112c5f" stroke-width="2" d="M2015.6467,-577.1399C2000.4314,-540.2208 1972,-461.9781 1972,-392.8 1972,-392.8 1972,-392.8 1972,-210.8 1972,-162.3345 1952.7064,-109.2515 1937.8528,-75.566"></path>
<polygon fill="#112c5f" stroke="#112c5f" stroke-width="2" points="1940.9176,-73.8489 1933.6067,-66.1806 1934.5399,-76.7343 1940.9176,-73.8489"></polygon>
</g>
<!-- dir_0 -->
<g id="node9" class="node">
<title>dir_0</title>
<ellipse fill="#b5b426" stroke="#000000" cx="1870" cy="-127" rx="27" ry="18"></ellipse>
<ellipse fill="none" stroke="#000000" cx="1870" cy="-127" rx="31" ry="22"></ellipse>
<text text-anchor="middle" x="1870" y="-122.8" font-family="Times,serif" font-size="14.00" fill="#000000">dir</text>
</g>
<!-- dir_0&#45;&gt;Gnuplotter_0_1 -->
<g id="edge54" class="edge">
<title>dir_0-&gt;Gnuplotter_0_1</title>
<path fill="none" stroke="#112c5f" stroke-width="2" d="M1882.0863,-106.6192C1887.7013,-97.1507 1894.5294,-85.6368 1900.8889,-74.9129"></path>
<polygon fill="#112c5f" stroke="#112c5f" stroke-width="2" points="1903.9933,-76.5396 1906.0837,-66.153 1897.9724,-72.969 1903.9933,-76.5396"></polygon>
</g>
<!-- directed_motion_strength_global_0 -->
<g id="node10" class="node">
<title>directed_motion_strength_global_0</title>
<g id="a_node10">
<ellipse fill="#d3d247" stroke="#000000" cx="2188" cy="-876.4" rx="139.4711" ry="18"></ellipse>
<text text-anchor="middle" x="2188" y="-872.2" font-family="Times,serif" font-size="14.00" fill="#000000">directed_motion_strength_global</text>
</g>
</g>
<!-- Event_3_9522132350753128048_0_1 -->
<g id="node55" class="node">
<title>Event_3_9522132350753128048_0_1</title>
<g id="a_node55">">
<polygon fill="#fffea3" stroke="transparent" points="1520,-817.6 1362,-817.6 1362,-743.6 1520,-743.6 1520,-817.6"></polygon>
<text text-anchor="start" x="1423.5048" y="-800.1" font-family="times" font-size="15.00" fill="#000000">Event</text>
<text text-anchor="start" x="1365.7308" y="-777.1" font-family="times" font-style="italic" font-size="15.00" fill="#000000">"Axial cell initialization"</text>
<text text-anchor="start" x="1431.625" y="-752.1" font-family="times" font-size="15.00" fill="#000000">0.1</text>
<polygon fill="#000000" stroke="#000000" points="1362,-768.6 1362,-768.6 1520,-768.6 1520,-768.6 1362,-768.6"></polygon>
<polygon fill="none" stroke="#000000" points="1362,-743.6 1362,-817.6 1520,-817.6 1520,-743.6 1362,-743.6"></polygon>
</g>
</g>
<!-- directed_motion_strength_global_0&#45;&gt;Event_3_9522132350753128048_0_1 -->
<g id="edge59" class="edge">
<title>directed_motion_strength_global_0-&gt;Event_3_9522132350753128048_0_1</title>
<path fill="none" stroke="#112c5f" stroke-width="2" d="M2091.9572,-863.3033C2074.3715,-861.3309 2056.1573,-859.5685 2039,-858.4 2010.8949,-856.4859 1558.6038,-859.6627 1532,-850.4 1515.4953,-844.6535 1499.6107,-834.6421 1485.8613,-823.966"></path>
<polygon fill="#112c5f" stroke="#112c5f" stroke-width="2" points="1488.0011,-821.1952 1478.024,-817.6304 1483.6005,-826.6389 1488.0011,-821.1952"></polygon>
</g>
<!-- init_time_0 -->
<g id="node11" class="node">
<title>init_time_0</title>
<g id="a_node11">
<ellipse fill="#d3d247" stroke="#000000" cx="2391" cy="-876.4" rx="45.8214" ry="18"></ellipse>
<text text-anchor="middle" x="2391" y="-872.2" font-family="Times,serif" font-size="14.00" fill="#000000">init_time</text>
</g>
</g>
<!-- init_time_0&#45;&gt;Event_3_9522132350753128048_0_1 -->
<g id="edge60" class="edge">
<title>init_time_0-&gt;Event_3_9522132350753128048_0_1</title>
<path fill="none" stroke="#112c5f" stroke-width="2" d="M2357.9605,-863.7821C2350.8188,-861.5665 2343.2369,-859.5911 2336,-858.4 2291.9241,-851.146 1574.2277,-864.9647 1532,-850.4 1515.4786,-844.7016 1499.5888,-834.7054 1485.8397,-824.0283"></path>
<polygon fill="#112c5f" stroke="#112c5f" stroke-width="2" points="1487.9795,-821.2575 1478.0032,-817.6905 1483.5776,-826.7003 1487.9795,-821.2575"></polygon>
</g>
<!-- init_time_0&#45;&gt;Event_4_287372449523645943_0_1 -->
<g id="edge61" class="edge">
<title>init_time_0-&gt;Event_4_287372449523645943_0_1</title>
<path fill="none" stroke="#112c5f" stroke-width="2" d="M2357.9578,-863.7983C2350.8163,-861.5815 2343.2352,-859.6016 2336,-858.4 2301.9085,-852.7382 1746.5279,-862.0713 1714,-850.4 1698.1513,-844.7133 1683.0318,-834.837 1669.9747,-824.2731"></path>
<polygon fill="#112c5f" stroke="#112c5f" stroke-width="2" points="1672.0203,-821.4194 1662.1232,-817.6381 1667.502,-826.766 1672.0203,-821.4194"></polygon>
</g>
<!-- max_angle_0 -->
<g id="node12" class="node">
<title>max_angle_0</title>
<g id="a_node12">
<ellipse fill="#d3d247" stroke="#000000" cx="1977" cy="-876.4" rx="53.3129" ry="18"></ellipse>
<text text-anchor="middle" x="1977" y="-872.2" font-family="Times,serif" font-size="14.00" fill="#000000">max_angle</text>
</g>
</g>
<!-- PyMapper_1_2913032040704325466_1 -->
<g id="node23" class="node">
<title>PyMapper_1_2913032040704325466_1</title>
<g id="a_node23">">
<polygon fill="#fffea3" stroke="transparent" points="1224,-817.6 996,-817.6 996,-743.6 1224,-743.6 1224,-817.6"></polygon>
<text text-anchor="start" x="1078.7588" y="-800.1" font-family="times" font-size="15.00" fill="#000000">PyMapper</text>
<text text-anchor="start" x="999.9383" y="-777.1" font-family="times" font-style="italic" font-size="15.00" fill="#000000">"Code for multi-neighbor collisions"</text>
<text text-anchor="start" x="1106.25" y="-752.1" font-family="times" font-size="15.00" fill="#000000">1</text>
<polygon fill="#000000" stroke="#000000" points="996,-768.6 996,-768.6 1224,-768.6 1224,-768.6 996,-768.6"></polygon>
<polygon fill="none" stroke="#000000" points="996,-743.6 996,-817.6 1224,-817.6 1224,-743.6 996,-743.6"></polygon>
</g>
</g>
<!-- max_angle_0&#45;&gt;PyMapper_1_2913032040704325466_1 -->
<g id="edge62" class="edge">
<title>max_angle_0-&gt;PyMapper_1_2913032040704325466_1</title>
<path fill="none" stroke="#112c5f" stroke-width="2" d="M1938.9946,-863.6137C1931.1464,-861.4709 1922.8719,-859.5668 1915,-858.4 1877.573,-852.8525 1270.5426,-860.2081 1234,-850.4 1212.1712,-844.5411 1190.1076,-833.9552 1170.765,-822.7692"></path>
<polygon fill="#112c5f" stroke="#112c5f" stroke-width="2" points="1172.4635,-819.7072 1162.0799,-817.6023 1168.8845,-825.7231 1172.4635,-819.7072"></polygon>
</g>
<!-- min_push_velocity_0 -->
<g id="node13" class="node">
<title>min_push_velocity_0</title>
<g id="a_node13">
<ellipse fill="#d3d247" stroke="#000000" cx="1821" cy="-876.4" rx="85.1372" ry="18"></ellipse>
<text text-anchor="middle" x="1821" y="-872.2" font-family="Times,serif" font-size="14.00" fill="#000000">min_push_velocity</text>
</g>
</g>
<!-- min_push_velocity_0&#45;&gt;PyMapper_1_2913032040704325466_1 -->
<g id="edge66" class="edge">
<title>min_push_velocity_0-&gt;PyMapper_1_2913032040704325466_1</title>
<path fill="none" stroke="#112c5f" stroke-width="2" d="M1762.4936,-863.2256C1751.738,-861.2611 1740.5698,-859.5215 1730,-858.4 1675.1894,-852.5846 1287.2027,-864.8047 1234,-850.4 1212.2875,-844.5213 1190.3333,-833.9941 1171.0561,-822.8689"></path>
<polygon fill="#112c5f" stroke="#112c5f" stroke-width="2" points="1172.7837,-819.8243 1162.3979,-817.7298 1169.2108,-825.8438 1172.7837,-819.8243"></polygon>
</g>
<!-- run_duration_adjustment_0 -->
<g id="node14" class="node">
<title>run_duration_adjustment_0</title>
<g id="a_node14">
<ellipse fill="#d3d247" stroke="#000000" cx="1864" cy="-598.6" rx="108.2511" ry="18"></ellipse>
<text text-anchor="middle" x="1864" y="-594.4" font-family="Times,serif" font-size="14.00" fill="#000000">run_duration_adjustment</text>
</g>
</g>
<!-- Event_5_6519872361270148854_5 -->
<g id="node57" class="node">
<title>Event_5_6519872361270148854_5</title>
<g id="a_node57">">
<polygon fill="#fffea3" stroke="transparent" points="1709.5,-520.8 1588.5,-520.8 1588.5,-446.8 1709.5,-446.8 1709.5,-520.8"></polygon>
<text text-anchor="start" x="1632.0048" y="-503.3" font-family="times" font-size="15.00" fill="#000000">Event</text>
<text text-anchor="start" x="1592.971" y="-480.3" font-family="times" font-style="italic" font-size="15.00" fill="#000000">"Run and Tumble"</text>
<text text-anchor="start" x="1645.75" y="-455.3" font-family="times" font-size="15.00" fill="#000000">5</text>
<polygon fill="#000000" stroke="#000000" points="1589,-471.8 1589,-471.8 1710,-471.8 1710,-471.8 1589,-471.8"></polygon>
<polygon fill="none" stroke="#000000" points="1588.5,-446.8 1588.5,-520.8 1709.5,-520.8 1709.5,-446.8 1588.5,-446.8"></polygon>
</g>
</g>
<!-- run_duration_adjustment_0&#45;&gt;Event_5_6519872361270148854_5 -->
<g id="edge73" class="edge">
<title>run_duration_adjustment_0-&gt;Event_5_6519872361270148854_5</title>
<path fill="none" stroke="#112c5f" stroke-width="2" d="M1812.41,-582.7523C1790.6952,-576.1343 1765.1426,-568.4149 1742,-561.6 1729.5847,-557.944 1725.0361,-560.3609 1714,-553.6 1703.0814,-546.9111 1692.8283,-537.8944 1683.8349,-528.5666"></path>
<polygon fill="#112c5f" stroke="#112c5f" stroke-width="2" points="1686.2583,-526.0318 1676.9037,-521.0576 1681.1146,-530.7797 1686.2583,-526.0318"></polygon>
</g>
<!-- time_0 -->
<g id="node15" class="node">
<title>time_0</title>
<g id="a_node15">
<ellipse fill="#d3d247" stroke="#000000" cx="2483" cy="-876.4" rx="28.4069" ry="18"></ellipse>
<text text-anchor="middle" x="2483" y="-872.2" font-family="Times,serif" font-size="14.00" fill="#000000">time</text>
</g>
</g>
<!-- time_0&#45;&gt;Event_3_9522132350753128048_0_1 -->
<g id="edge75" class="edge">
<title>time_0-&gt;Event_3_9522132350753128048_0_1</title>
<path fill="none" stroke="#112c5f" stroke-width="2" d="M2462.0786,-864.2432C2456.9779,-861.8433 2451.4242,-859.6744 2446,-858.4 2396.5664,-846.7855 1580.0145,-866.9284 1532,-850.4 1515.4752,-844.7115 1499.5843,-834.7184 1485.8353,-824.0411"></path>
<polygon fill="#112c5f" stroke="#112c5f" stroke-width="2" points="1487.9751,-821.2703 1477.9989,-817.7028 1483.573,-826.7129 1487.9751,-821.2703"></polygon>
</g>
<!-- time_0&#45;&gt;Event_4_287372449523645943_0_1 -->
<g id="edge76" class="edge">
<title>time_0-&gt;Event_4_287372449523645943_0_1</title>
<path fill="none" stroke="#112c5f" stroke-width="2" d="M2462.0766,-864.2517C2456.9759,-861.8515 2451.4228,-859.6803 2446,-858.4 2406.4191,-849.055 1752.2928,-864.0981 1714,-850.4 1698.1458,-844.7287 1683.0246,-834.8572 1669.9675,-824.2932"></path>
<polygon fill="#112c5f" stroke="#112c5f" stroke-width="2" points="1672.0131,-821.4394 1662.1162,-817.6574 1667.4945,-826.7857 1672.0131,-821.4394"></polygon>
</g>
<!-- time_0&#45;&gt;Event_5_6519872361270148854_5 -->
<g id="edge77" class="edge">
<title>time_0-&gt;Event_5_6519872361270148854_5</title>
<path fill="none" stroke="#112c5f" stroke-width="2" d="M2460.9291,-865.0206C2456.0698,-862.6966 2450.9077,-860.364 2446,-858.4 2143.2749,-737.2527 1967.8296,-875.503 1747,-635.6 1724.1457,-610.7717 1750.8623,-588.1241 1730,-561.6 1725.0848,-555.3509 1720.366,-558.3628 1714,-553.6 1704.2631,-546.3153 1694.7636,-537.4661 1686.1666,-528.5495"></path>
<polygon fill="#112c5f" stroke="#112c5f" stroke-width="2" points="1688.5608,-525.9856 1679.1719,-521.0765 1683.4502,-530.7691 1688.5608,-525.9856"></polygon>
</g>
<!-- velocity_0 -->
<g id="node16" class="node">
<title>velocity_0</title>
<ellipse fill="#b5b426" stroke="#000000" cx="105" cy="-1139.2" rx="42.2804" ry="18"></ellipse>
<ellipse fill="none" stroke="#000000" cx="105" cy="-1139.2" rx="46.2932" ry="22"></ellipse>
<text text-anchor="middle" x="105" y="-1135" font-family="Times,serif" font-size="14.00" fill="#000000">velocity</text>
</g>
<!-- velocity_0&#45;&gt;velocity_0 -->
<g id="edge80" class="edge">
<title>velocity_0-&gt;velocity_0</title>
<path fill="none" stroke="#38568c" stroke-dasharray="5,2" d="M139.6442,-1153.9354C155.4269,-1155.4399 169.1464,-1150.5281 169.1464,-1139.2 169.1464,-1127.8719 155.4269,-1122.9601 139.6442,-1124.4646"></path>
</g>
<!-- velocity_x_0 -->
<g id="node17" class="node">
<title>velocity_x_0</title>
<ellipse fill="#d3d247" stroke="#000000" cx="105" cy="-1058.4" rx="49.2784" ry="18"></ellipse>
<text text-anchor="middle" x="105" y="-1054.2" font-family="Times,serif" font-size="14.00" fill="#000000">velocity.x</text>
</g>
<!-- velocity_0&#45;&gt;velocity_x_0 -->
<g id="edge81" class="edge">
<title>velocity_0-&gt;velocity_x_0</title>
<path fill="none" stroke="#38568c" stroke-dasharray="5,2" d="M105,-1117.121C105,-1104.4117 105,-1088.6334 105,-1076.6338"></path>
</g>
<!-- velocity_y_0 -->
<g id="node18" class="node">
<title>velocity_y_0</title>
<ellipse fill="#d3d247" stroke="#000000" cx="222" cy="-1058.4" rx="49.2784" ry="18"></ellipse>
<text text-anchor="middle" x="222" y="-1054.2" font-family="Times,serif" font-size="14.00" fill="#000000">velocity.y</text>
</g>
<!-- velocity_0&#45;&gt;velocity_y_0 -->
<g id="edge82" class="edge">
<title>velocity_0-&gt;velocity_y_0</title>
<path fill="none" stroke="#38568c" stroke-dasharray="5,2" d="M138.2837,-1123.674C146.5776,-1119.3517 155.2968,-1114.4036 163,-1109.2 177.8969,-1099.137 193.2399,-1085.8185 204.5445,-1075.3433"></path>
</g>
<!-- NeighborhoodReporter_1_8799129014052462958_1 -->
<g id="node21" class="node">
<title>NeighborhoodReporter_1_8799129014052462958_1</title>
<g id="a_node21">">
<polygon fill="#fffea3" stroke="transparent" points="703.5,-1004.4 556.5,-1004.4 556.5,-930.4 703.5,-930.4 703.5,-1004.4"></polygon>
<text text-anchor="start" x="560.9375" y="-986.9" font-family="times" font-size="15.00" fill="#000000">NeighborhoodReporter</text>
<text text-anchor="start" x="562.31" y="-963.9" font-family="times" font-style="italic" font-size="15.00" fill="#000000">"neighbor_velocity_x"</text>
<text text-anchor="start" x="626.75" y="-938.9" font-family="times" font-size="15.00" fill="#000000">1</text>
<polygon fill="#000000" stroke="#000000" points="557,-955.4 557,-955.4 704,-955.4 704,-955.4 557,-955.4"></polygon>
<polygon fill="none" stroke="#000000" points="556.5,-930.4 556.5,-1004.4 703.5,-1004.4 703.5,-930.4 556.5,-930.4"></polygon>
</g>
</g>
<!-- velocity_x_0&#45;&gt;NeighborhoodReporter_1_8799129014052462958_1 -->
<g id="edge84" class="edge">
<title>velocity_x_0-&gt;NeighborhoodReporter_1_8799129014052462958_1</title>
<path fill="none" stroke="#112c5f" stroke-width="2" d="M141.2141,-1046.0845C148.6789,-1043.9053 156.5394,-1041.8673 164,-1040.4 331.0365,-1007.5477 383.6184,-1049.0478 546.569,-1006.0725"></path>
<polygon fill="#112c5f" stroke="#112c5f" stroke-width="2" points="547.7011,-1009.3922 556.4403,-1003.4025 545.8733,-1002.635 547.7011,-1009.3922"></polygon>
</g>
<!-- NeighborhoodReporter_1_13727688377437822175_1 -->
<g id="node22" class="node">
<title>NeighborhoodReporter_1_13727688377437822175_1</title>
<g id="a_node22">">
<polygon fill="#fffea3" stroke="transparent" points="868.5,-1004.4 721.5,-1004.4 721.5,-930.4 868.5,-930.4 868.5,-1004.4"></polygon>
<text text-anchor="start" x="725.9375" y="-986.9" font-family="times" font-size="15.00" fill="#000000">NeighborhoodReporter</text>
<text text-anchor="start" x="727.31" y="-963.9" font-family="times" font-style="italic" font-size="15.00" fill="#000000">"neighbor_velocity_y"</text>
<text text-anchor="start" x="791.75" y="-938.9" font-family="times" font-size="15.00" fill="#000000">1</text>
<polygon fill="#000000" stroke="#000000" points="722,-955.4 722,-955.4 869,-955.4 869,-955.4 722,-955.4"></polygon>
<polygon fill="none" stroke="#000000" points="721.5,-930.4 721.5,-1004.4 868.5,-1004.4 868.5,-930.4 721.5,-930.4"></polygon>
</g>
</g>
<!-- velocity_y_0&#45;&gt;NeighborhoodReporter_1_13727688377437822175_1 -->
<g id="edge85" class="edge">
<title>velocity_y_0-&gt;NeighborhoodReporter_1_13727688377437822175_1</title>
<path fill="none" stroke="#112c5f" stroke-width="2" d="M258.2037,-1046.0311C265.6693,-1043.856 273.5328,-1041.8332 281,-1040.4 466.9783,-1004.7044 524.5297,-1051.0825 711.3523,-1004.5606"></path>
<polygon fill="#112c5f" stroke="#112c5f" stroke-width="2" points="712.3888,-1007.9084 721.2157,-1002.0488 710.6613,-1001.1249 712.3888,-1007.9084"></polygon>
</g>
<!-- Mapper_1_17359335164138667687_1 -->
<g id="node24" class="node">
<title>Mapper_1_17359335164138667687_1</title>
<g id="a_node24">">
<polygon fill="#fffea3" stroke="transparent" points="1586.5,-1004.4 1485.5,-1004.4 1485.5,-930.4 1586.5,-930.4 1586.5,-1004.4"></polygon>
<text text-anchor="start" x="1513.178" y="-986.9" font-family="times" font-size="15.00" fill="#000000">Mapper</text>
<text text-anchor="start" x="1489.9858" y="-963.9" font-family="times" font-style="italic" font-size="15.00" fill="#000000">"cell_center_x"</text>
<text text-anchor="start" x="1532.75" y="-938.9" font-family="times" font-size="15.00" fill="#000000">1</text>
<polygon fill="#000000" stroke="#000000" points="1486,-955.4 1486,-955.4 1587,-955.4 1587,-955.4 1486,-955.4"></polygon>
<polygon fill="none" stroke="#000000" points="1485.5,-930.4 1485.5,-1004.4 1586.5,-1004.4 1586.5,-930.4 1485.5,-930.4"></polygon>
</g>
</g>
<!-- cell_center_x_1 -->
<g id="node35" class="node">
<title>cell_center_x_1</title>
<g id="a_node35">
<ellipse fill="#d3d247" stroke="#000000" cx="1491" cy="-876.4" rx="63.0996" ry="18"></ellipse>
<text text-anchor="middle" x="1491" y="-872.2" font-family="Times,serif" font-size="14.00" fill="#000000">cell_center_x</text>
</g>
</g>
<!-- Mapper_1_17359335164138667687_1&#45;&gt;cell_center_x_1 -->
<g id="edge14" class="edge">
<title>Mapper_1_17359335164138667687_1-&gt;cell_center_x_1</title>
<path fill="none" stroke="#8f100d" stroke-width="3" d="M1511.0522,-930.3868C1506.4211,-921.4742 1501.9235,-912.1113 1498.2688,-903.7319"></path>
<polygon fill="#8f100d" stroke="#8f100d" stroke-width="3" points="1501.4751,-902.3266 1494.408,-894.433 1495.0101,-905.0108 1501.4751,-902.3266"></polygon>
</g>
<!-- Mapper_1_11329759407116316701_1 -->
<g id="node25" class="node">
<title>Mapper_1_11329759407116316701_1</title>
<g id="a_node25">">
<polygon fill="#fffea3" stroke="transparent" points="1343.5,-817.6 1242.5,-817.6 1242.5,-743.6 1343.5,-743.6 1343.5,-817.6"></polygon>
<text text-anchor="start" x="1270.178" y="-800.1" font-family="times" font-size="15.00" fill="#000000">Mapper</text>
<text text-anchor="start" x="1246.9858" y="-777.1" font-family="times" font-style="italic" font-size="15.00" fill="#000000">"cell_center_y"</text>
<text text-anchor="start" x="1289.75" y="-752.1" font-family="times" font-size="15.00" fill="#000000">1</text>
<polygon fill="#000000" stroke="#000000" points="1243,-768.6 1243,-768.6 1344,-768.6 1344,-768.6 1243,-768.6"></polygon>
<polygon fill="none" stroke="#000000" points="1242.5,-743.6 1242.5,-817.6 1343.5,-817.6 1343.5,-743.6 1242.5,-743.6"></polygon>
</g>
</g>
<!-- cell_center_y_1 -->
<g id="node36" class="node">
<title>cell_center_y_1</title>
<g id="a_node36">
<ellipse fill="#d3d247" stroke="#000000" cx="1655" cy="-876.4" rx="63.0996" ry="18"></ellipse>
<text text-anchor="middle" x="1655" y="-872.2" font-family="Times,serif" font-size="14.00" fill="#000000">cell_center_y</text>
</g>
</g>
<!-- Mapper_1_11329759407116316701_1&#45;&gt;cell_center_y_1 -->
<g id="edge13" class="edge">
<title>Mapper_1_11329759407116316701_1-&gt;cell_center_y_1</title>
<path fill="none" stroke="#8f100d" stroke-width="3" d="M1322.6883,-817.9201C1332.5176,-830.5401 1344.5643,-843.2382 1359,-850.4 1381.7079,-861.6658 1561.8728,-855.0547 1587,-858.4 1592.1414,-859.0845 1597.4424,-859.959 1602.7149,-860.9526"></path>
<polygon fill="#8f100d" stroke="#8f100d" stroke-width="3" points="1602.2736,-864.4342 1612.7697,-862.9912 1603.6646,-857.5738 1602.2736,-864.4342"></polygon>
</g>
<!-- MotilityReporter_1_5616238747679371661_1 -->
<g id="node26" class="node">
<title>MotilityReporter_1_5616238747679371661_1</title>
<g id="a_node26">">
<polygon fill="#fffea3" stroke="transparent" points="1302,-1004.4 1052,-1004.4 1052,-930.4 1302,-930.4 1302,-1004.4"></polygon>
<text text-anchor="start" x="1126.174" y="-986.9" font-family="times" font-size="15.00" fill="#000000">MotilityReporter</text>
<text text-anchor="start" x="1055.9148" y="-963.9" font-family="times" font-style="italic" font-size="15.00" fill="#000000">"Get velocity for computing mechanics"</text>
<text text-anchor="start" x="1173.25" y="-938.9" font-family="times" font-size="15.00" fill="#000000">1</text>
<polygon fill="#000000" stroke="#000000" points="1052,-955.4 1052,-955.4 1302,-955.4 1302,-955.4 1052,-955.4"></polygon>
<polygon fill="none" stroke="#000000" points="1052,-930.4 1052,-1004.4 1302,-1004.4 1302,-930.4 1052,-930.4"></polygon>
</g>
</g>
<!-- velocity_1 -->
<g id="node54" class="node">
<title>velocity_1</title>
<g id="a_node54">
<ellipse fill="#b5b426" stroke="#000000" cx="998" cy="-876.4" rx="42.2932" ry="18"></ellipse>
<text text-anchor="middle" x="998" y="-872.2" font-family="Times,serif" font-size="14.00" fill="#000000">velocity</text>
</g>
</g>
<!-- MotilityReporter_1_5616238747679371661_1&#45;&gt;velocity_1 -->
<g id="edge15" class="edge">
<title>MotilityReporter_1_5616238747679371661_1-&gt;velocity_1</title>
<path fill="none" stroke="#8f100d" stroke-width="3" d="M1104.1938,-930.3868C1080.1291,-918.1528 1054.395,-905.0701 1034.2873,-894.8477"></path>
<polygon fill="#8f100d" stroke="#8f100d" stroke-width="3" points="1035.6866,-891.6328 1025.1862,-890.2209 1032.5143,-897.8728 1035.6866,-891.6328"></polygon>
</g>
<!-- VectorEquation_1_17156620443879438539_1 -->
<g id="node27" class="node">
<title>VectorEquation_1_17156620443879438539_1</title>
<g id="a_node27">">
<polygon fill="#fffea3" stroke="transparent" points="1129.5,-635.6 890.5,-635.6 890.5,-561.6 1129.5,-561.6 1129.5,-635.6"></polygon>
<text text-anchor="start" x="963.0168" y="-618.1" font-family="times" font-size="15.00" fill="#000000">VectorEquation</text>
<text text-anchor="start" x="894.6213" y="-595.1" font-family="times" font-style="italic" font-size="15.00" fill="#000000">"Set induced direction of polster cells"</text>
<text text-anchor="start" x="1006.75" y="-570.1" font-family="times" font-size="15.00" fill="#000000">1</text>
<polygon fill="#000000" stroke="#000000" points="891,-586.6 891,-586.6 1130,-586.6 1130,-586.6 891,-586.6"></polygon>
<polygon fill="none" stroke="#000000" points="890.5,-561.6 890.5,-635.6 1129.5,-635.6 1129.5,-561.6 890.5,-561.6"></polygon>
</g>
</g>
<!-- mech_induced_dir_1 -->
<g id="node42" class="node">
<title>mech_induced_dir_1</title>
<g id="a_node42">
<ellipse fill="#b5b426" stroke="#000000" cx="1475" cy="-483.8" rx="82.811" ry="18"></ellipse>
<text text-anchor="middle" x="1475" y="-479.6" font-family="Times,serif" font-size="14.00" fill="#000000">mech_induced_dir</text>
</g>
</g>
<!-- VectorEquation_1_17156620443879438539_1&#45;&gt;mech_induced_dir_1 -->
<g id="edge26" class="edge">
<title>VectorEquation_1_17156620443879438539_1-&gt;mech_induced_dir_1</title>
<path fill="none" stroke="#8f100d" stroke-width="3" d="M1129.5792,-591.5379C1222.4011,-584.7294 1342.6756,-572.6196 1388,-553.6 1412.0917,-543.4903 1434.9549,-524.6487 1451.1925,-509.0875"></path>
<polygon fill="#8f100d" stroke="#8f100d" stroke-width="3" points="1453.9519,-511.2814 1458.6078,-501.7644 1449.0333,-506.3008 1453.9519,-511.2814"></polygon>
</g>
<!-- VectorEquation_1_5348017865350990162_1 -->
<g id="node28" class="node">
<title>VectorEquation_1_5348017865350990162_1</title>
<g id="a_node28">">
<polygon fill="#fffea3" stroke="transparent" points="1604,-338.8 1416,-338.8 1416,-264.8 1604,-264.8 1604,-338.8"></polygon>
<text text-anchor="start" x="1462.5168" y="-321.3" font-family="times" font-size="15.00" fill="#000000">VectorEquation</text>
<text text-anchor="start" x="1419.739" y="-298.3" font-family="times" font-style="italic" font-size="15.00" fill="#000000">"Set direction of polster cells"</text>
<text text-anchor="start" x="1506.25" y="-273.3" font-family="times" font-size="15.00" fill="#000000">1</text>
<polygon fill="#000000" stroke="#000000" points="1416,-289.8 1416,-289.8 1604,-289.8 1604,-289.8 1416,-289.8"></polygon>
<polygon fill="none" stroke="#000000" points="1416,-264.8 1416,-338.8 1604,-338.8 1604,-264.8 1416,-264.8"></polygon>
</g>
</g>
<!-- dir_1 -->
<g id="node39" class="node">
<title>dir_1</title>
<g id="a_node39">
<ellipse fill="#b5b426" stroke="#000000" cx="1510" cy="-210.8" rx="27" ry="18"></ellipse>
<text text-anchor="middle" x="1510" y="-206.6" font-family="Times,serif" font-size="14.00" fill="#000000">dir</text>
</g>
</g>
<!-- VectorEquation_1_5348017865350990162_1&#45;&gt;dir_1 -->
<g id="edge27" class="edge">
<title>VectorEquation_1_5348017865350990162_1-&gt;dir_1</title>
<path fill="none" stroke="#8f100d" stroke-width="3" d="M1510,-264.7868C1510,-256.1649 1510,-247.1214 1510,-238.9547"></path>
<polygon fill="#8f100d" stroke="#8f100d" stroke-width="3" points="1513.5001,-238.833 1510,-228.833 1506.5001,-238.8331 1513.5001,-238.833"></polygon>
</g>
<!-- neighbor_center_x_1 -->
<g id="node44" class="node">
<title>neighbor_center_x_1</title>
<g id="a_node44">
<ellipse fill="#d3d247" stroke="#000000" cx="1327" cy="-876.4" rx="83.3732" ry="18"></ellipse>
<text text-anchor="middle" x="1327" y="-872.2" font-family="Times,serif" font-size="14.00" fill="#000000">neighbor_center_x</text>
</g>
</g>
<!-- NeighborhoodReporter_1_2935424596247476088_1&#45;&gt;neighbor_center_x_1 -->
<g id="edge18" class="edge">
<title>NeighborhoodReporter_1_2935424596247476088_1-&gt;neighbor_center_x_1</title>
<path fill="none" stroke="#8f100d" stroke-width="3" d="M1366.7485,-930.3868C1359.9012,-921.0867 1352.6928,-911.2962 1346.323,-902.6446"></path>
<polygon fill="#8f100d" stroke="#8f100d" stroke-width="3" points="1349.0246,-900.4107 1340.2771,-894.433 1343.3876,-904.561 1349.0246,-900.4107"></polygon>
</g>
<!-- neighbor_center_y_1 -->
<g id="node45" class="node">
<title>neighbor_center_y_1</title>
<g id="a_node45">
<ellipse fill="#d3d247" stroke="#000000" cx="1142" cy="-876.4" rx="83.3732" ry="18"></ellipse>
<text text-anchor="middle" x="1142" y="-872.2" font-family="Times,serif" font-size="14.00" fill="#000000">neighbor_center_y</text>
</g>
</g>
<!-- NeighborhoodReporter_1_11546882034193711143_1&#45;&gt;neighbor_center_y_1 -->
<g id="edge16" class="edge">
<title>NeighborhoodReporter_1_11546882034193711143_1-&gt;neighbor_center_y_1</title>
<path fill="none" stroke="#8f100d" stroke-width="3" d="M1033.5018,-930.6491C1055.986,-919.407 1079.9513,-907.4243 1099.6241,-897.5879"></path>
<polygon fill="#8f100d" stroke="#8f100d" stroke-width="3" points="1101.246,-900.6902 1108.625,-893.0875 1098.1155,-894.4292 1101.246,-900.6902"></polygon>
</g>
<!-- neighbor_velocity_x_1 -->
<g id="node46" class="node">
<title>neighbor_velocity_x_1</title>
<g id="a_node46">
<ellipse fill="#d3d247" stroke="#000000" cx="647" cy="-876.4" rx="90.9186" ry="18"></ellipse>
<text text-anchor="middle" x="647" y="-872.2" font-family="Times,serif" font-size="14.00" fill="#000000">neighbor_velocity_x</text>
</g>
</g>
<!-- NeighborhoodReporter_1_8799129014052462958_1&#45;&gt;neighbor_velocity_x_1 -->
<g id="edge19" class="edge">
<title>NeighborhoodReporter_1_8799129014052462958_1-&gt;neighbor_velocity_x_1</title>
<path fill="none" stroke="#8f100d" stroke-width="3" d="M636.9146,-930.3868C638.5433,-921.668 640.2527,-912.5181 641.7917,-904.2798"></path>
<polygon fill="#8f100d" stroke="#8f100d" stroke-width="3" points="645.2352,-904.9057 643.6312,-894.433 638.3543,-903.6202 645.2352,-904.9057"></polygon>
</g>
<!-- neighbor_velocity_y_1 -->
<g id="node47" class="node">
<title>neighbor_velocity_y_1</title>
<g id="a_node47">
<ellipse fill="#d3d247" stroke="#000000" cx="847" cy="-876.4" rx="90.9186" ry="18"></ellipse>
<text text-anchor="middle" x="847" y="-872.2" font-family="Times,serif" font-size="14.00" fill="#000000">neighbor_velocity_y</text>
</g>
</g>
<!-- NeighborhoodReporter_1_13727688377437822175_1&#45;&gt;neighbor_velocity_y_1 -->
<g id="edge17" class="edge">
<title>NeighborhoodReporter_1_13727688377437822175_1-&gt;neighbor_velocity_y_1</title>
<path fill="none" stroke="#8f100d" stroke-width="3" d="M816.1504,-930.3868C821.354,-921.2805 826.8263,-911.704 831.6932,-903.1868"></path>
<polygon fill="#8f100d" stroke="#8f100d" stroke-width="3" points="834.7728,-904.852 836.6954,-894.433 828.6951,-901.379 834.7728,-904.852"></polygon>
</g>
<!-- py_angle_1 -->
<g id="node48" class="node">
<title>py_angle_1</title>
<g id="a_node48">
<ellipse fill="#d3d247" stroke="#000000" cx="683" cy="-689.6" rx="46.372" ry="18"></ellipse>
<text text-anchor="middle" x="683" y="-685.4" font-family="Times,serif" font-size="14.00" fill="#000000">py_angle</text>
</g>
</g>
<!-- PyMapper_1_2913032040704325466_1&#45;&gt;py_angle_1 -->
<g id="edge20" class="edge">
<title>PyMapper_1_2913032040704325466_1-&gt;py_angle_1</title>
<path fill="none" stroke="#8f100d" stroke-width="3" d="M1019.9006,-743.5847C1010.5782,-740.5573 1001.1637,-737.8161 992,-735.6 882.0388,-709.0078 849.6312,-731.2509 739,-707.6 735.1224,-706.7711 731.1329,-705.7795 727.1545,-704.6937"></path>
<polygon fill="#8f100d" stroke="#8f100d" stroke-width="3" points="727.9382,-701.2766 717.3583,-701.8396 725.9801,-707.9971 727.9382,-701.2766"></polygon>
</g>
<!-- py_induced_dir_x_1 -->
<g id="node49" class="node">
<title>py_induced_dir_x_1</title>
<g id="a_node49">
<ellipse fill="#d3d247" stroke="#000000" cx="1010" cy="-689.6" rx="81.111" ry="18"></ellipse>
<text text-anchor="middle" x="1010" y="-685.4" font-family="Times,serif" font-size="14.00" fill="#000000">py_induced_dir_x</text>
</g>
</g>
<!-- PyMapper_1_2913032040704325466_1&#45;&gt;py_induced_dir_x_1 -->
<g id="edge21" class="edge">
<title>PyMapper_1_2913032040704325466_1-&gt;py_induced_dir_x_1</title>
<path fill="none" stroke="#8f100d" stroke-width="3" d="M1069.3262,-743.5868C1058.4034,-733.6471 1046.8649,-723.1471 1036.8968,-714.0761"></path>
<polygon fill="#8f100d" stroke="#8f100d" stroke-width="3" points="1039.0327,-711.2875 1029.281,-707.1457 1034.3214,-716.4648 1039.0327,-711.2875"></polygon>
</g>
<!-- py_induced_dir_y_1 -->
<g id="node50" class="node">
<title>py_induced_dir_y_1</title>
<g id="a_node50">
<ellipse fill="#d3d247" stroke="#000000" cx="829" cy="-689.6" rx="81.111" ry="18"></ellipse>
<text text-anchor="middle" x="829" y="-685.4" font-family="Times,serif" font-size="14.00" fill="#000000">py_induced_dir_y</text>
</g>
</g>
<!-- PyMapper_1_2913032040704325466_1&#45;&gt;py_induced_dir_y_1 -->
<g id="edge22" class="edge">
<title>PyMapper_1_2913032040704325466_1-&gt;py_induced_dir_y_1</title>
<path fill="none" stroke="#8f100d" stroke-width="3" d="M1014.9459,-743.5154C1007.2124,-740.7534 999.4932,-738.0806 992,-735.6 959.3973,-724.8069 922.6148,-714.2872 892.2529,-706.038"></path>
<polygon fill="#8f100d" stroke="#8f100d" stroke-width="3" points="892.7842,-702.5563 882.2177,-703.3304 890.9606,-709.3146 892.7842,-702.5563"></polygon>
</g>
<!-- DirectedMotion_1_9484618370322279673 -->
<g id="node29" class="node">
<title>DirectedMotion_1_9484618370322279673</title>
<g id="a_node29">">
<polygon fill="#fffea3" stroke="transparent" points="1261.5,-152 1042.5,-152 1042.5,-102 1261.5,-102 1261.5,-152"></polygon>
<text text-anchor="start" x="1104.5975" y="-134.5" font-family="times" font-size="15.00" fill="#000000">DirectedMotion</text>
<text text-anchor="start" x="1046.8355" y="-111.5" font-family="times" font-style="italic" font-size="15.00" fill="#000000">"Directed movement of axial cells"</text>
<polygon fill="none" stroke="#000000" points="1042.5,-102 1042.5,-152 1261.5,-152 1261.5,-102 1042.5,-102"></polygon>
</g>
</g>
<!-- DirectedMotion_1_8877822575212958333 -->
<g id="node31" class="node">
<title>DirectedMotion_1_8877822575212958333</title>
<g id="a_node31">">
<polygon fill="#fffea3" stroke="transparent" points="1494,-152 1280,-152 1280,-102 1494,-102 1494,-152"></polygon>
<text text-anchor="start" x="1339.0975" y="-134.5" font-family="times" font-size="15.00" fill="#000000">DirectedMotion</text>
<text text-anchor="start" x="1283.623" y="-111.5" font-family="times" font-style="italic" font-size="15.00" fill="#000000">"Directed movement polster cells"</text>
<polygon fill="none" stroke="#000000" points="1280,-102 1280,-152 1494,-152 1494,-102 1280,-102"></polygon>
</g>
</g>
<!-- RaT_dir_1 -->
<g id="node32" class="node">
<title>RaT_dir_1</title>
<g id="a_node32">
<ellipse fill="#b5b426" stroke="#000000" cx="1669" cy="-392.8" rx="43.4377" ry="18"></ellipse>
<text text-anchor="middle" x="1669" y="-388.6" font-family="Times,serif" font-size="14.00" fill="#000000">RaT_dir</text>
</g>
</g>
<!-- RaT_dir_1&#45;&gt;VectorEquation_1_5348017865350990162_1 -->
<g id="edge23" class="edge">
<title>RaT_dir_1-&gt;VectorEquation_1_5348017865350990162_1</title>
<path fill="none" stroke="#112c5f" stroke-width="2" d="M1643.4539,-378.1793C1627.1744,-368.862 1605.1797,-356.2739 1583.7458,-344.0067"></path>
<polygon fill="#112c5f" stroke="#112c5f" stroke-width="2" points="1585.3524,-340.8936 1574.9348,-338.9639 1581.8753,-346.9689 1585.3524,-340.8936"></polygon>
</g>
<!-- RandT_or_Mech_motion_strength_1 -->
<g id="node33" class="node">
<title>RandT_or_Mech_motion_strength_1</title>
<g id="a_node33">
<ellipse fill="#d3d247" stroke="#000000" cx="1493" cy="-689.6" rx="145.2755" ry="18"></ellipse>
<text text-anchor="middle" x="1493" y="-685.4" font-family="Times,serif" font-size="14.00" fill="#000000">RandT_or_Mech_motion_strength</text>
</g>
</g>
<!-- RandT_or_Mech_motion_strength_1&#45;&gt;DirectedMotion_1_8877822575212958333 -->
<g id="edge24" class="edge">
<title>RandT_or_Mech_motion_strength_1-&gt;DirectedMotion_1_8877822575212958333</title>
<path fill="none" stroke="#112c5f" stroke-width="2" d="M1449.2406,-672.2116C1432.5119,-663.5324 1414.6703,-651.4457 1403,-635.6 1362.2171,-580.226 1373,-552.5716 1373,-483.8 1373,-483.8 1373,-483.8 1373,-301.8 1373,-253.3791 1378.4038,-197.6536 1382.4969,-162.3896"></path>
<polygon fill="#112c5f" stroke="#112c5f" stroke-width="2" points="1386.0111,-162.4769 1383.7176,-152.1333 1379.0602,-161.6495 1386.0111,-162.4769"></polygon>
</g>
<!-- cell_center_1 -->
<g id="node34" class="node">
<title>cell_center_1</title>
<ellipse fill="#b5b426" stroke="#000000" cx="1286" cy="-1058.4" rx="50.9572" ry="18"></ellipse>
<text text-anchor="middle" x="1286" y="-1054.2" font-family="Times,serif" font-size="14.00" fill="#000000">cell.center</text>
</g>
<!-- cell_center_1&#45;&gt;cell_center_0 -->
<g id="edge37" class="edge">
<title>cell_center_1-&gt;cell_center_0</title>
<path fill="none" stroke="#38568c" stroke-dasharray="5,2" d="M1272.3925,-1075.9588C1262.3215,-1087.5499 1247.527,-1101.899 1231,-1109.2 1204.9692,-1120.6994 1029.5845,-1131.5088 938.5771,-1136.4249"></path>
</g>
<!-- cell_center_1&#45;&gt;Mapper_1_17359335164138667687_1 -->
<g id="edge31" class="edge">
<title>cell_center_1-&gt;Mapper_1_17359335164138667687_1</title>
<path fill="none" stroke="#112c5f" stroke-width="2" d="M1330.4754,-1049.5992C1367.8388,-1041.3792 1422.4376,-1027.4272 1476.0374,-1004.4866"></path>
<polygon fill="#112c5f" stroke="#112c5f" stroke-width="2" points="1477.5731,-1007.635 1485.3263,-1000.4144 1474.7624,-1001.2241 1477.5731,-1007.635"></polygon>
</g>
<!-- cell_center_1&#45;&gt;Mapper_1_11329759407116316701_1 -->
<g id="edge30" class="edge">
<title>cell_center_1-&gt;Mapper_1_11329759407116316701_1</title>
<path fill="none" stroke="#112c5f" stroke-width="2" d="M1335.3647,-1053.6161C1421.2156,-1044.7951 1590.5841,-1024.9798 1608,-1004.4 1629.2459,-979.2944 1617.829,-961.7858 1608,-930.4 1602.1784,-911.8106 1593.2985,-910.9348 1583,-894.4 1573.3234,-878.8637 1578.5981,-867.9766 1563,-858.4 1542.817,-846.0085 1371.2029,-860.9518 1350,-850.4 1338.6163,-844.7348 1328.7156,-835.6316 1320.5037,-825.8443"></path>
<polygon fill="#112c5f" stroke="#112c5f" stroke-width="2" points="1323.2048,-823.6167 1314.2839,-817.901 1317.6934,-827.9323 1323.2048,-823.6167"></polygon>
</g>
<!-- cell_center_1&#45;&gt;MotilityReporter_1_5616238747679371661_1 -->
<g id="edge32" class="edge">
<title>cell_center_1-&gt;MotilityReporter_1_5616238747679371661_1</title>
<path fill="none" stroke="#112c5f" stroke-width="2" d="M1266.0077,-1041.7092C1255.7267,-1033.1259 1242.6624,-1022.2191 1229.7311,-1011.4232"></path>
<polygon fill="#112c5f" stroke="#112c5f" stroke-width="2" points="1231.6423,-1008.4594 1221.7227,-1004.7373 1227.1561,-1013.8329 1231.6423,-1008.4594"></polygon>
</g>
<!-- cell_center_1&#45;&gt;NeighborhoodReporter_1_2935424596247476088_1 -->
<g id="edge35" class="edge">
<title>cell_center_1-&gt;NeighborhoodReporter_1_2935424596247476088_1</title>
<path fill="none" stroke="#112c5f" stroke-width="2" d="M1305.8089,-1041.7092C1315.9956,-1033.1259 1328.94,-1022.2191 1341.7527,-1011.4232"></path>
<polygon fill="#112c5f" stroke="#112c5f" stroke-width="2" points="1344.2955,-1013.8575 1349.6876,-1004.7373 1339.785,-1008.5043 1344.2955,-1013.8575"></polygon>
</g>
<!-- cell_center_1&#45;&gt;NeighborhoodReporter_1_11546882034193711143_1 -->
<g id="edge33" class="edge">
<title>cell_center_1-&gt;NeighborhoodReporter_1_11546882034193711143_1</title>
<path fill="none" stroke="#112c5f" stroke-width="2" d="M1249.5063,-1045.7396C1243.3671,-1043.8166 1237.0312,-1041.9577 1231,-1040.4 1151.6858,-1019.9159 1126.0613,-1029.1332 1043.6695,-1004.3662"></path>
<polygon fill="#112c5f" stroke="#112c5f" stroke-width="2" points="1044.4716,-1000.951 1033.8842,-1001.3476 1042.4081,-1007.6399 1044.4716,-1000.951"></polygon>
</g>
<!-- cell_center_1&#45;&gt;NeighborhoodReporter_1_8799129014052462958_1 -->
<g id="edge36" class="edge">
<title>cell_center_1-&gt;NeighborhoodReporter_1_8799129014052462958_1</title>
<path fill="none" stroke="#112c5f" stroke-width="2" d="M1250.5403,-1045.382C1244.1099,-1043.428 1237.4095,-1041.6515 1231,-1040.4 1007.7073,-996.7993 938.8672,-1058.4416 713.5601,-1004.2203"></path>
<polygon fill="#112c5f" stroke="#112c5f" stroke-width="2" points="714.2999,-1000.798 703.7537,-1001.8115 712.6301,-1007.5959 714.2999,-1000.798"></polygon>
</g>
<!-- cell_center_1&#45;&gt;NeighborhoodReporter_1_13727688377437822175_1 -->
<g id="edge34" class="edge">
<title>cell_center_1-&gt;NeighborhoodReporter_1_13727688377437822175_1</title>
<path fill="none" stroke="#112c5f" stroke-width="2" d="M1250.2084,-1045.4634C1243.8728,-1043.5258 1237.2902,-1041.7339 1231,-1040.4 1079.8916,-1008.3568 1032.3288,-1043.5148 878.5845,-1004.2512"></path>
<polygon fill="#112c5f" stroke="#112c5f" stroke-width="2" points="879.3465,-1000.8328 868.7861,-1001.6859 877.5735,-1007.6046 879.3465,-1000.8328"></polygon>
</g>
<!-- cell_center_1&#45;&gt;cell_center_x_1 -->
<g id="edge38" class="edge">
<title>cell_center_1-&gt;cell_center_x_1</title>
<path fill="none" stroke="#38568c" stroke-dasharray="5,2" d="M1337.1257,-1057.1553C1416.4668,-1054.0242 1563.5222,-1043.0243 1596,-1004.4 1617.1666,-979.2275 1613.1315,-958.4747 1596,-930.4 1583.3471,-909.6647 1559.91,-896.5553 1538.3835,-888.4548"></path>
</g>
<!-- cell_center_1&#45;&gt;cell_center_y_1 -->
<g id="edge39" class="edge">
<title>cell_center_1-&gt;cell_center_y_1</title>
<path fill="none" stroke="#38568c" stroke-dasharray="5,2" d="M1335.6374,-1053.7967C1426.017,-1044.9602 1610.0888,-1024.6914 1631,-1004.4 1646.4147,-989.4422 1652.1684,-926.1796 1654.1106,-894.554"></path>
</g>
<!-- cell_center_x_1&#45;&gt;Mapper_1_17359335164138667687_1 -->
<g id="edge42" class="edge">
<title>cell_center_x_1-&gt;Mapper_1_17359335164138667687_1</title>
<path fill="none" stroke="#112c5f" stroke-width="2" d="M1505.1345,-893.9457C1509.8513,-901.7872 1515.0537,-911.4371 1519.8701,-921.1336"></path>
<polygon fill="#112c5f" stroke="#112c5f" stroke-width="2" points="1516.8392,-922.9056 1524.3413,-930.3868 1523.1419,-919.8601 1516.8392,-922.9056"></polygon>
</g>
<!-- cell_center_x_1&#45;&gt;PyMapper_1_2913032040704325466_1 -->
<g id="edge43" class="edge">
<title>cell_center_x_1-&gt;PyMapper_1_2913032040704325466_1</title>
<path fill="none" stroke="#112c5f" stroke-width="2" d="M1445.9561,-863.6617C1437.0844,-861.5728 1427.7983,-859.6767 1419,-858.4 1378.2769,-852.491 1273.5701,-861.691 1234,-850.4 1212.6716,-844.3141 1191.0518,-833.9118 1171.9683,-822.9693"></path>
<polygon fill="#112c5f" stroke="#112c5f" stroke-width="2" points="1173.4957,-819.8069 1163.1035,-817.7447 1169.9415,-825.8375 1173.4957,-819.8069"></polygon>
</g>
<!-- cell_center_y_1&#45;&gt;Mapper_1_11329759407116316701_1 -->
<g id="edge47" class="edge">
<title>cell_center_y_1-&gt;Mapper_1_11329759407116316701_1</title>
<path fill="none" stroke="#112c5f" stroke-width="2" d="M1605.0547,-865.1906C1593.2331,-862.5008 1580.7032,-859.9581 1569,-858.4 1543.8728,-855.0547 1363.7079,-861.6658 1341,-850.4 1329.7221,-844.8048 1319.9024,-835.8306 1312.0179,-826.1544"></path>
<polygon fill="#112c5f" stroke="#112c5f" stroke-width="2" points="1314.6522,-823.8327 1305.8606,-817.9201 1309.0462,-828.0247 1314.6522,-823.8327"></polygon>
</g>
<!-- cell_center_y_1&#45;&gt;PyMapper_1_2913032040704325466_1 -->
<g id="edge48" class="edge">
<title>cell_center_y_1-&gt;PyMapper_1_2913032040704325466_1</title>
<path fill="none" stroke="#112c5f" stroke-width="2" d="M1605.5791,-865.1392C1591.8619,-862.4492 1576.9138,-859.9193 1563,-858.4 1526.6497,-854.4308 1269.2562,-860.1006 1234,-850.4 1212.3118,-844.4325 1190.3645,-833.8797 1171.0863,-822.7583"></path>
<polygon fill="#112c5f" stroke="#112c5f" stroke-width="2" points="1172.8136,-819.7136 1162.4271,-817.623 1169.2429,-825.7344 1172.8136,-819.7136"></polygon>
</g>
<!-- cell_center_y_1&#45;&gt;Event_3_9522132350753128048_0_1 -->
<g id="edge45" class="edge">
<title>cell_center_y_1-&gt;Event_3_9522132350753128048_0_1</title>
<path fill="none" stroke="#112c5f" stroke-width="2" d="M1606.6244,-864.6442C1597.1544,-862.4694 1587.2821,-860.2904 1578,-858.4 1557.6661,-854.2587 1551.0045,-858.7335 1532,-850.4 1516.8993,-843.7783 1502.0458,-834.1366 1488.8598,-824.1216"></path>
<polygon fill="#112c5f" stroke="#112c5f" stroke-width="2" points="1490.9063,-821.2786 1480.8778,-817.8612 1486.5864,-826.7866 1490.9063,-821.2786"></polygon>
</g>
<!-- cell_center_y_1&#45;&gt;Event_4_287372449523645943_0_1 -->
<g id="edge46" class="edge">
<title>cell_center_y_1-&gt;Event_4_287372449523645943_0_1</title>
<path fill="none" stroke="#112c5f" stroke-width="2" d="M1649.7334,-858.3808C1647.1864,-849.6662 1643.9972,-838.7548 1640.8204,-827.8855"></path>
<polygon fill="#112c5f" stroke="#112c5f" stroke-width="2" points="1644.09,-826.5961 1637.9251,-817.9796 1637.3711,-828.5599 1644.09,-826.5961"></polygon>
</g>
<!-- cell_type_1 -->
<g id="node37" class="node">
<title>cell_type_1</title>
<g id="a_node37">
<ellipse fill="#d3d247" stroke="#000000" cx="1674" cy="-1058.4" rx="44.0377" ry="18"></ellipse>
<text text-anchor="middle" x="1674" y="-1054.2" font-family="Times,serif" font-size="14.00" fill="#000000">cell.type</text>
</g>
</g>
<!-- cell_type_1&#45;&gt;cell_type_0 -->
<g id="edge49" class="edge">
<title>cell_type_1-&gt;cell_type_0</title>
<path fill="none" stroke="#38568c" stroke-dasharray="5,2" d="M1693.3082,-1042.131C1711.6315,-1026.692 1739.1963,-1003.4661 1758.7256,-987.0109"></path>
</g>
<!-- color_1 -->
<g id="node38" class="node">
<title>color_1</title>
<g id="a_node38">
<ellipse fill="#d3d247" stroke="#000000" cx="1687" cy="-689.6" rx="30.7577" ry="18"></ellipse>
<text text-anchor="middle" x="1687" y="-685.4" font-family="Times,serif" font-size="14.00" fill="#000000">color</text>
</g>
</g>
<!-- color_1&#45;&gt;color_0 -->
<g id="edge52" class="edge">
<title>color_1-&gt;color_0</title>
<path fill="none" stroke="#38568c" stroke-dasharray="5,2" d="M1709.1155,-676.8213C1713.2917,-674.8166 1717.7006,-672.9609 1722,-671.6 1832.7993,-636.5276 1874.8191,-682.8459 1981,-635.6 1990.4835,-631.3802 1999.5234,-624.4826 2006.915,-617.7793"></path>
</g>
<!-- dir_1&#45;&gt;dir_0 -->
<g id="edge56" class="edge">
<title>dir_1-&gt;dir_0</title>
<path fill="none" stroke="#38568c" stroke-dasharray="5,2" d="M1529.5326,-198.1745C1533.2371,-196.1541 1537.1584,-194.2536 1541,-192.8 1646.1457,-153.0149 1779.7467,-135.8192 1839.1355,-129.7652"></path>
</g>
<!-- dir_1&#45;&gt;DirectedMotion_1_8877822575212958333 -->
<g id="edge55" class="edge">
<title>dir_1-&gt;DirectedMotion_1_8877822575212958333</title>
<path fill="none" stroke="#112c5f" stroke-width="2" d="M1491.0508,-197.8899C1475.4843,-187.2844 1452.7839,-171.8186 1432.5556,-158.0371"></path>
<polygon fill="#112c5f" stroke="#112c5f" stroke-width="2" points="1434.3006,-154.9908 1424.0656,-152.2529 1430.3592,-160.7758 1434.3006,-154.9908"></polygon>
</g>
<!-- directed_motion_dir_1 -->
<g id="node40" class="node">
<title>directed_motion_dir_1</title>
<g id="a_node40">
<ellipse fill="#b5b426" stroke="#000000" cx="1261" cy="-210.8" rx="89.7691" ry="18"></ellipse>
<text text-anchor="middle" x="1261" y="-206.6" font-family="Times,serif" font-size="14.00" fill="#000000">directed_motion_dir</text>
</g>
</g>
<!-- directed_motion_dir_1&#45;&gt;DirectedMotion_1_9484618370322279673 -->
<g id="edge57" class="edge">
<title>directed_motion_dir_1-&gt;DirectedMotion_1_9484618370322279673</title>
<path fill="none" stroke="#112c5f" stroke-width="2" d="M1238.15,-193.2328C1225.0873,-183.1901 1208.3123,-170.2933 1193.0412,-158.5528"></path>
<polygon fill="#112c5f" stroke="#112c5f" stroke-width="2" points="1194.8063,-155.495 1184.7451,-152.1747 1190.5398,-161.0445 1194.8063,-155.495"></polygon>
</g>
<!-- directed_motion_strength_1 -->
<g id="node41" class="node">
<title>directed_motion_strength_1</title>
<g id="a_node41">
<ellipse fill="#d3d247" stroke="#000000" cx="1220" cy="-689.6" rx="110.0353" ry="18"></ellipse>
<text text-anchor="middle" x="1220" y="-685.4" font-family="Times,serif" font-size="14.00" fill="#000000">directed_motion_strength</text>
</g>
</g>
<!-- directed_motion_strength_1&#45;&gt;DirectedMotion_1_9484618370322279673 -->
<g id="edge58" class="edge">
<title>directed_motion_strength_1-&gt;DirectedMotion_1_9484618370322279673</title>
<path fill="none" stroke="#112c5f" stroke-width="2" d="M1209.6723,-671.5382C1190.6495,-636.5161 1152,-556.424 1152,-483.8 1152,-483.8 1152,-483.8 1152,-301.8 1152,-253.5337 1152,-197.7707 1152,-162.4561"></path>
<polygon fill="#112c5f" stroke="#112c5f" stroke-width="2" points="1155.5001,-162.1838 1152,-152.1839 1148.5001,-162.1839 1155.5001,-162.1838"></polygon>
</g>
<!-- mech_induced_dir_1&#45;&gt;VectorEquation_1_5348017865350990162_1 -->
<g id="edge63" class="edge">
<title>mech_induced_dir_1-&gt;VectorEquation_1_5348017865350990162_1</title>
<path fill="none" stroke="#112c5f" stroke-width="2" d="M1449.5018,-466.332C1422.2087,-445.337 1385.0957,-408.6892 1403,-374.8 1408.8851,-363.6606 1417.3189,-353.9006 1426.9038,-345.4498"></path>
<polygon fill="#112c5f" stroke="#112c5f" stroke-width="2" points="1429.3072,-348.005 1434.8109,-338.9518 1424.8628,-342.5969 1429.3072,-348.005"></polygon>
</g>
<!-- mech_induced_dir_abs_1 -->
<g id="node43" class="node">
<title>mech_induced_dir_abs_1</title>
<ellipse fill="#d3d247" stroke="#000000" cx="1510" cy="-392.8" rx="98.3812" ry="18"></ellipse>
<text text-anchor="middle" x="1510" y="-388.6" font-family="Times,serif" font-size="14.00" fill="#000000">mech_induced_dir.abs</text>
</g>
<!-- mech_induced_dir_1&#45;&gt;mech_induced_dir_abs_1 -->
<g id="edge64" class="edge">
<title>mech_induced_dir_1-&gt;mech_induced_dir_abs_1</title>
<path fill="none" stroke="#38568c" stroke-dasharray="5,2" d="M1481.9149,-465.8213C1488.011,-449.9714 1496.8522,-426.9844 1502.9797,-411.0528"></path>
</g>
<!-- mech_induced_dir_abs_1&#45;&gt;VectorEquation_1_5348017865350990162_1 -->
<g id="edge65" class="edge">
<title>mech_induced_dir_abs_1-&gt;VectorEquation_1_5348017865350990162_1</title>
<path fill="none" stroke="#112c5f" stroke-width="2" d="M1510,-374.3848C1510,-366.989 1510,-358.0921 1510,-349.1013"></path>
<polygon fill="#112c5f" stroke="#112c5f" stroke-width="2" points="1513.5001,-348.9854 1510,-338.9855 1506.5001,-348.9855 1513.5001,-348.9854"></polygon>
</g>
<!-- neighbor_center_x_1&#45;&gt;PyMapper_1_2913032040704325466_1 -->
<g id="edge67" class="edge">
<title>neighbor_center_x_1-&gt;PyMapper_1_2913032040704325466_1</title>
<path fill="none" stroke="#112c5f" stroke-width="2" d="M1270.6912,-863.0025C1258.4091,-859.4349 1245.6168,-855.2112 1234,-850.4 1215.3413,-842.6723 1195.9545,-832.7622 1178.2072,-822.8516"></path>
<polygon fill="#112c5f" stroke="#112c5f" stroke-width="2" points="1179.5138,-819.5689 1169.0886,-817.6805 1176.0607,-825.658 1179.5138,-819.5689"></polygon>
</g>
<!-- neighbor_center_y_1&#45;&gt;PyMapper_1_2913032040704325466_1 -->
<g id="edge68" class="edge">
<title>neighbor_center_y_1-&gt;PyMapper_1_2913032040704325466_1</title>
<path fill="none" stroke="#112c5f" stroke-width="2" d="M1135.981,-858.3808C1133.0404,-849.5773 1129.3509,-838.5319 1125.6836,-827.5528"></path>
<polygon fill="#112c5f" stroke="#112c5f" stroke-width="2" points="1128.9739,-826.3555 1122.4859,-817.9796 1122.3345,-828.5733 1128.9739,-826.3555"></polygon>
</g>
<!-- neighbor_velocity_x_1&#45;&gt;PyMapper_1_2913032040704325466_1 -->
<g id="edge69" class="edge">
<title>neighbor_velocity_x_1-&gt;PyMapper_1_2913032040704325466_1</title>
<path fill="none" stroke="#112c5f" stroke-width="2" d="M710.8176,-863.486C722.7958,-861.4683 735.2467,-859.643 747,-858.4 801.1714,-852.6709 939.6995,-865.6321 992,-850.4 1012.5225,-844.423 1033.1676,-834.0498 1051.3237,-823.1004"></path>
<polygon fill="#112c5f" stroke="#112c5f" stroke-width="2" points="1053.3772,-825.9451 1060.0253,-817.6956 1049.6838,-819.9988 1053.3772,-825.9451"></polygon>
</g>
<!-- neighbor_velocity_y_1&#45;&gt;PyMapper_1_2913032040704325466_1 -->
<g id="edge70" class="edge">
<title>neighbor_velocity_y_1-&gt;PyMapper_1_2913032040704325466_1</title>
<path fill="none" stroke="#112c5f" stroke-width="2" d="M914.5043,-864.2288C925.3694,-862.2757 936.4945,-860.2793 947,-858.4 966.9962,-854.8229 972.9534,-857.4618 992,-850.4 1010.9095,-843.389 1030.2283,-833.3726 1047.6139,-823.1083"></path>
<polygon fill="#112c5f" stroke="#112c5f" stroke-width="2" points="1049.7654,-825.8979 1056.5168,-817.7328 1046.1472,-819.9055 1049.7654,-825.8979"></polygon>
</g>
<!-- py_induced_dir_x_1&#45;&gt;VectorEquation_1_17156620443879438539_1 -->
<g id="edge71" class="edge">
<title>py_induced_dir_x_1-&gt;VectorEquation_1_17156620443879438539_1</title>
<path fill="none" stroke="#112c5f" stroke-width="2" d="M1010,-671.1848C1010,-663.789 1010,-654.8921 1010,-645.9013"></path>
<polygon fill="#112c5f" stroke="#112c5f" stroke-width="2" points="1013.5001,-645.7854 1010,-635.7855 1006.5001,-645.7855 1013.5001,-645.7854"></polygon>
</g>
<!-- py_induced_dir_y_1&#45;&gt;VectorEquation_1_17156620443879438539_1 -->
<g id="edge72" class="edge">
<title>py_induced_dir_y_1-&gt;VectorEquation_1_17156620443879438539_1</title>
<path fill="none" stroke="#112c5f" stroke-width="2" d="M861.7777,-673.1206C880.1245,-663.8965 903.9033,-651.9414 927.0227,-640.3178"></path>
<polygon fill="#112c5f" stroke="#112c5f" stroke-width="2" points="928.8183,-643.3326 936.1805,-635.7137 925.6739,-637.0786 928.8183,-643.3326"></polygon>
</g>
<!-- target_volume_1 -->
<g id="node51" class="node">
<title>target_volume_1</title>
<g id="a_node51">
<ellipse fill="#d3d247" stroke="#000000" cx="965" cy="-210.8" rx="66.6344" ry="18"></ellipse>
<text text-anchor="middle" x="965" y="-206.6" font-family="Times,serif" font-size="14.00" fill="#000000">target_volume</text>
</g>
</g>
<!-- target_volume_1&#45;&gt;VolumeConstraint_1 -->
<g id="edge74" class="edge">
<title>target_volume_1-&gt;VolumeConstraint_1</title>
<path fill="none" stroke="#112c5f" stroke-width="2" d="M965,-192.6166C965,-181.7452 965,-167.6975 965,-155.3909"></path>
<polygon fill="#112c5f" stroke="#112c5f" stroke-width="2" points="968.5001,-155.1478 965,-145.1479 961.5001,-155.1479 968.5001,-155.1478"></polygon>
</g>
<!-- tumble_last_1 -->
<g id="node52" class="node">
<title>tumble_last_1</title>
<g id="a_node52">
<ellipse fill="#d3d247" stroke="#000000" cx="1466" cy="-598.6" rx="53.8676" ry="18"></ellipse>
<text text-anchor="middle" x="1466" y="-594.4" font-family="Times,serif" font-size="14.00" fill="#000000">tumble.last</text>
</g>
</g>
<!-- tumble_last_1&#45;&gt;Event_5_6519872361270148854_5 -->
<g id="edge78" class="edge">
<title>tumble_last_1-&gt;Event_5_6519872361270148854_5</title>
<path fill="none" stroke="#112c5f" stroke-width="2" d="M1495.1115,-583.3749C1507.9084,-575.636 1523.1534,-566.7928 1538,-561.6 1561.7318,-553.2995 1571.7615,-565.3281 1594,-553.6 1605.5897,-547.4879 1616.1659,-538.4167 1624.9649,-528.8212"></path>
<polygon fill="#112c5f" stroke="#112c5f" stroke-width="2" points="1627.7692,-530.9278 1631.6259,-521.0598 1622.4572,-526.3689 1627.7692,-530.9278"></polygon>
</g>
<!-- tumble_run_duration_1 -->
<g id="node53" class="node">
<title>tumble_run_duration_1</title>
<g id="a_node53">
<ellipse fill="#d3d247" stroke="#000000" cx="1628" cy="-598.6" rx="90.3139" ry="18"></ellipse>
<text text-anchor="middle" x="1628" y="-594.4" font-family="Times,serif" font-size="14.00" fill="#000000">tumble.run_duration</text>
</g>
</g>
<!-- tumble_run_duration_1&#45;&gt;Event_5_6519872361270148854_5 -->
<g id="edge79" class="edge">
<title>tumble_run_duration_1-&gt;Event_5_6519872361270148854_5</title>
<path fill="none" stroke="#112c5f" stroke-width="2" d="M1636.3438,-580.6625C1640.1624,-567.3782 1644.1239,-548.6282 1646.9941,-531.1589"></path>
<polygon fill="#112c5f" stroke="#112c5f" stroke-width="2" points="1650.4845,-531.4887 1648.5487,-521.0723 1643.5662,-530.4224 1650.4845,-531.4887"></polygon>
</g>
<!-- velocity_1&#45;&gt;velocity_0 -->
<g id="edge83" class="edge">
<title>velocity_1-&gt;velocity_0</title>
<path fill="none" stroke="#38568c" stroke-dasharray="5,2" d="M967.0702,-888.6978C960.5293,-890.9063 953.6053,-892.9601 947,-894.4 749.0347,-937.5555 173.9819,-882.5132 47,-1040.4 27.8364,-1064.2277 31.1028,-1083.0795 47,-1109.2 51.5972,-1116.7536 58.7774,-1122.4893 66.5398,-1126.8136"></path>
</g>
<!-- Event_3_9522132350753128048_0_1&#45;&gt;RandT_or_Mech_motion_strength_1 -->
<g id="edge4" class="edge">
<title>Event_3_9522132350753128048_0_1-&gt;RandT_or_Mech_motion_strength_1</title>
<path fill="none" stroke="#8f100d" stroke-width="3" d="M1462.1504,-743.5868C1467.354,-734.4805 1472.8263,-724.904 1477.6932,-716.3868"></path>
<polygon fill="#8f100d" stroke="#8f100d" stroke-width="3" points="1480.7728,-718.052 1482.6954,-707.633 1474.6951,-714.579 1480.7728,-718.052"></polygon>
</g>
<!-- Event_3_9522132350753128048_0_1&#45;&gt;color_1 -->
<g id="edge5" class="edge">
<title>Event_3_9522132350753128048_0_1-&gt;color_1</title>
<path fill="none" stroke="#8f100d" stroke-width="3" d="M1512.1323,-743.5919C1518.7683,-740.6984 1525.458,-737.9809 1532,-735.6 1581.4324,-717.6097 1597.2485,-724.688 1647,-707.6 1649.2484,-706.8277 1651.5433,-705.9761 1653.8399,-705.076"></path>
<polygon fill="#8f100d" stroke="#8f100d" stroke-width="3" points="1655.2941,-708.2619 1663.1759,-701.1818 1652.5992,-701.8014 1655.2941,-708.2619"></polygon>
</g>
<!-- Event_3_9522132350753128048_0_1&#45;&gt;directed_motion_strength_1 -->
<g id="edge6" class="edge">
<title>Event_3_9522132350753128048_0_1-&gt;directed_motion_strength_1</title>
<path fill="none" stroke="#8f100d" stroke-width="3" d="M1374.9156,-743.4471C1369.2533,-740.6693 1363.5639,-738.0135 1358,-735.6 1334.379,-725.3538 1307.6846,-715.9729 1284.1113,-708.3931"></path>
<polygon fill="#8f100d" stroke="#8f100d" stroke-width="3" points="1285.1518,-705.0514 1274.5616,-705.3652 1283.0361,-711.724 1285.1518,-705.0514"></polygon>
</g>
<!-- Event_4_287372449523645943_0_1&#45;&gt;RandT_or_Mech_motion_strength_1 -->
<g id="edge7" class="edge">
<title>Event_4_287372449523645943_0_1-&gt;RandT_or_Mech_motion_strength_1</title>
<path fill="none" stroke="#8f100d" stroke-width="3" d="M1572.4971,-743.5868C1557.3997,-733.3341 1541.4247,-722.4854 1527.7865,-713.2237"></path>
<polygon fill="#8f100d" stroke="#8f100d" stroke-width="3" points="1529.4336,-710.1114 1519.1945,-707.3888 1525.5009,-715.9023 1529.4336,-710.1114"></polygon>
</g>
<!-- Event_4_287372449523645943_0_1&#45;&gt;color_1 -->
<g id="edge8" class="edge">
<title>Event_4_287372449523645943_0_1-&gt;color_1</title>
<path fill="none" stroke="#8f100d" stroke-width="3" d="M1651.4043,-743.5868C1657.7309,-733.9915 1664.4017,-723.8741 1670.2368,-715.0242"></path>
<polygon fill="#8f100d" stroke="#8f100d" stroke-width="3" points="1673.1671,-716.9383 1675.7497,-706.663 1667.323,-713.085 1673.1671,-716.9383"></polygon>
</g>
<!-- Event_4_287372449523645943_0_1&#45;&gt;directed_motion_strength_1 -->
<g id="edge9" class="edge">
<title>Event_4_287372449523645943_0_1-&gt;directed_motion_strength_1</title>
<path fill="none" stroke="#8f100d" stroke-width="3" d="M1554.4788,-743.5868C1547.0032,-740.5796 1539.4251,-737.8418 1532,-735.6 1449.0238,-710.5473 1424.7397,-720.3039 1339,-707.6 1329.9686,-706.2618 1320.5534,-704.8561 1311.1484,-703.4448"></path>
<polygon fill="#8f100d" stroke="#8f100d" stroke-width="3" points="1311.375,-699.9396 1300.9658,-701.9142 1310.3344,-706.8618 1311.375,-699.9396"></polygon>
</g>
<!-- Event_5_6519872361270148854_5&#45;&gt;RaT_dir_1 -->
<g id="edge10" class="edge">
<title>Event_5_6519872361270148854_5-&gt;RaT_dir_1</title>
<path fill="none" stroke="#8f100d" stroke-width="3" d="M1657.1348,-446.7868C1659.051,-438.068 1661.0619,-428.9181 1662.8726,-420.6798"></path>
<polygon fill="#8f100d" stroke="#8f100d" stroke-width="3" points="1666.3085,-421.3513 1665.0367,-410.833 1659.4716,-419.8486 1666.3085,-421.3513"></polygon>
</g>
<!-- Event_5_6519872361270148854_5&#45;&gt;tumble_last_1 -->
<g id="edge11" class="edge">
<title>Event_5_6519872361270148854_5-&gt;tumble_last_1</title>
<path fill="none" stroke="#8f100d" stroke-width="3" d="M1614.7313,-521.0598C1603.7481,-533.3553 1590.6879,-545.8539 1576,-553.6 1553.7615,-565.3281 1543.7318,-553.2995 1520,-561.6 1509.8528,-565.1491 1499.5196,-570.4034 1490.5621,-575.8449"></path>
<polygon fill="#8f100d" stroke="#8f100d" stroke-width="3" points="1488.6252,-572.9292 1482.121,-581.2926 1492.4211,-578.8107 1488.6252,-572.9292"></polygon>
</g>
<!-- Event_5_6519872361270148854_5&#45;&gt;tumble_run_duration_1 -->
<g id="edge12" class="edge">
<title>Event_5_6519872361270148854_5-&gt;tumble_run_duration_1</title>
<path fill="none" stroke="#8f100d" stroke-width="3" d="M1635.851,-520.9113C1632.2791,-536.9354 1629.0543,-555.3806 1627.2689,-570.2761"></path>
<polygon fill="#8f100d" stroke="#8f100d" stroke-width="3" points="1623.7681,-570.1069 1626.2387,-580.4096 1630.7322,-570.8149 1623.7681,-570.1069"></polygon>
</g>
<!-- cell_center_2 -->
<g id="node58" class="node">
<title>cell_center_2</title>
<ellipse fill="#b5b426" stroke="#000000" cx="1669" cy="-1226.2" rx="50.9572" ry="18"></ellipse>
<text text-anchor="middle" x="1669" y="-1222" font-family="Times,serif" font-size="14.00" fill="#000000">cell.center</text>
</g>
<!-- cell_center_2&#45;&gt;cell_center_0 -->
<g id="edge40" class="edge">
<title>cell_center_2-&gt;cell_center_0</title>
<path fill="none" stroke="#38568c" stroke-dasharray="5,2" d="M1644.17,-1210.3674C1635.0277,-1205.2893 1624.3675,-1200.2066 1614,-1197.2 1487.3164,-1160.4619 1086.3988,-1145.1745 939.0357,-1140.7006"></path>
</g>
<!-- cell_type_2 -->
<g id="node59" class="node">
<title>cell_type_2</title>
<g id="a_node59">
<ellipse fill="#d3d247" stroke="#000000" cx="1782" cy="-1226.2" rx="44.0377" ry="18"></ellipse>
<text text-anchor="middle" x="1782" y="-1222" font-family="Times,serif" font-size="14.00" fill="#000000">cell.type</text>
</g>
</g>
<!-- cell_type_2&#45;&gt;cell_type_0 -->
<g id="edge50" class="edge">
<title>cell_type_2-&gt;cell_type_0</title>
<path fill="none" stroke="#38568c" stroke-dasharray="5,2" d="M1782,-1208.0017C1782,-1161.7494 1782,-1039.8039 1782,-989.5403"></path>
</g>
<!-- color_2 -->
<g id="node60" class="node">
<title>color_2</title>
<g id="a_node60">
<ellipse fill="#d3d247" stroke="#000000" cx="1875" cy="-1226.2" rx="30.7577" ry="18"></ellipse>
<text text-anchor="middle" x="1875" y="-1222" font-family="Times,serif" font-size="14.00" fill="#000000">color</text>
</g>
</g>
<!-- color_2&#45;&gt;color_0 -->
<g id="edge53" class="edge">
<title>color_2-&gt;color_0</title>
<path fill="none" stroke="#38568c" stroke-dasharray="5,2" d="M1905.8347,-1224.4751C2076.332,-1214.5381 2896,-1161.4094 2896,-1058.4 2896,-1058.4 2896,-1058.4 2896,-780.6 2896,-693.6078 2221.6772,-618.7982 2059.6817,-602.0815"></path>
</g>
</g>
</svg>